[gd_scene load_steps=7 format=2]

[ext_resource path="res://scripts/Intermission.gd" type="Script" id=1]
[ext_resource path="res://res/fonts/AmazDooMLeft.ttf" type="DynamicFontData" id=2]
[ext_resource path="res://res/ui/interpic.png" type="Texture" id=3]
[ext_resource path="res://UI/Button.tscn" type="PackedScene" id=4]

[sub_resource type="DynamicFont" id=1]
size = 64
outline_size = 3
outline_color = Color( 0, 0, 0, 1 )
font_data = ExtResource( 2 )

[sub_resource type="Animation" id=2]
resource_name = "Text Type"
length = 30.0
tracks/0/type = "value"
tracks/0/path = NodePath("text:percent_visible")
tracks/0/interp = 1
tracks/0/loop_wrap = true
tracks/0/imported = false
tracks/0/enabled = true
tracks/0/keys = {
"times": PoolRealArray( 0, 15 ),
"transitions": PoolRealArray( 1, 1 ),
"update": 0,
"values": [ 0.0, 1.0 ]
}
tracks/1/type = "method"
tracks/1/path = NodePath(".")
tracks/1/interp = 1
tracks/1/loop_wrap = true
tracks/1/imported = false
tracks/1/enabled = true
tracks/1/keys = {
"times": PoolRealArray( 29.8 ),
"transitions": PoolRealArray( 1 ),
"values": [ {
"args": [  ],
"method": "end"
} ]
}

[node name="Intermission" type="Control"]
anchor_right = 1.0
anchor_bottom = 1.0
size_flags_horizontal = 3
size_flags_vertical = 3
script = ExtResource( 1 )
__meta__ = {
"_edit_use_anchors_": false
}
next_scene = "res://maps/secret_01.tscn"
music = "res://res/music/e1m4.ogg"

[node name="TextureRect" type="TextureRect" parent="."]
anchor_right = 1.0
anchor_bottom = 1.0
margin_right = 0.00012207
rect_min_size = Vector2( 1920, 1080 )
size_flags_horizontal = 3
size_flags_vertical = 3
texture = ExtResource( 3 )
stretch_mode = 1
__meta__ = {
"_edit_use_anchors_": false
}

[node name="text" type="Label" parent="."]
margin_left = 64.0
margin_top = 64.0
margin_right = 1856.0
margin_bottom = 940.0
size_flags_horizontal = 3
custom_fonts/font = SubResource( 1 )
custom_colors/font_color = Color( 1, 0, 0, 1 )
text = "


As you fell down the pit of dispair, you grabbed a ledge and pulled yourself up.  
You found a service hatch leading to a secret area. 
You are now the ghost in the machine. 
You have to work your way through the machinery and find a way out."
align = 1
autowrap = true
percent_visible = 0.0
__meta__ = {
"_edit_use_anchors_": false
}

[node name="AnimationPlayer" type="AnimationPlayer" parent="."]
"anims/Text Type" = SubResource( 2 )

[node name="Continue" parent="." instance=ExtResource( 4 )]
margin_left = 1544.67
margin_top = 940.407
margin_right = -51.3293
margin_bottom = 25.4067
text = "Continue"
