[gd_scene load_steps=5 format=2]

[ext_resource path="res://UI/Button.tscn" type="PackedScene" id=1]
[ext_resource path="res://res/fonts/AmazDooMLeft2.ttf" type="DynamicFontData" id=2]
[ext_resource path="res://scripts/Confirm_Dialog.gd" type="Script" id=3]

[sub_resource type="DynamicFont" id=1]
size = 96
outline_size = 2
outline_color = Color( 0, 0, 0, 1 )
font_data = ExtResource( 2 )

[node name="Confirm_Dialog" type="Control"]
pause_mode = 2
anchor_right = 1.0
anchor_bottom = 1.0
script = ExtResource( 3 )
__meta__ = {
"_edit_use_anchors_": false
}

[node name="ColorRect" type="ColorRect" parent="."]
anchor_right = 1.0
anchor_bottom = 1.0
color = Color( 0, 0, 0, 0.333333 )

[node name="VBoxContainer" type="VBoxContainer" parent="."]
anchor_right = 1.0
anchor_bottom = 1.0
alignment = 1
__meta__ = {
"_edit_use_anchors_": false
}

[node name="message" type="Label" parent="VBoxContainer"]
margin_top = 396.0
margin_right = 1920.0
margin_bottom = 515.0
custom_fonts/font = SubResource( 1 )
custom_colors/font_color = Color( 1, 0, 0, 1 )
custom_colors/font_color_shadow = Color( 0, 0, 0, 1 )
text = "Do you want to quit?"
align = 1
__meta__ = {
"_edit_use_anchors_": false
}

[node name="HBoxContainer" type="HBoxContainer" parent="VBoxContainer"]
margin_top = 519.0
margin_right = 1920.0
margin_bottom = 684.0
alignment = 1
__meta__ = {
"_edit_use_anchors_": false
}

[node name="Yes" parent="VBoxContainer/HBoxContainer" instance=ExtResource( 1 )]
anchor_right = 0.0
anchor_bottom = 0.0
margin_left = 840.0
margin_right = 979.0
margin_bottom = 165.0
text = "Yes"
reference_path = "res://UI/Main_Menu.tscn"

[node name="No" parent="VBoxContainer/HBoxContainer" instance=ExtResource( 1 )]
anchor_right = 0.0
anchor_bottom = 0.0
margin_left = 983.0
margin_right = 1080.0
margin_bottom = 165.0
text = "No"
start_focused = true
cancel = true
