[gd_scene load_steps=3 format=2]

[ext_resource path="res://UI/Label.tscn" type="PackedScene" id=1]
[ext_resource path="res://UI/Button.tscn" type="PackedScene" id=2]

[node name="controller_message" type="Control"]
anchor_right = 1.0
anchor_bottom = 1.0
__meta__ = {
"_edit_use_anchors_": false
}

[node name="CanvasLayer" type="CanvasLayer" parent="."]

[node name="exit" parent="CanvasLayer" instance=ExtResource( 2 )]
text = "exit"
reference_path = "res://UI/Main_Menu.tscn"
start_focused = true

[node name="msg" parent="CanvasLayer" instance=ExtResource( 1 )]
text = "
Battle Mode Requires
More than one
Gamepad controller"
