[gd_scene load_steps=7 format=2]

[ext_resource path="res://res/fonts/AmazDooMLeft2.ttf" type="DynamicFontData" id=1]
[ext_resource path="res://scripts/player_overhead.gd" type="Script" id=2]
[ext_resource path="res://UI/Label.tscn" type="PackedScene" id=3]

[sub_resource type="StyleBoxFlat" id=3]
bg_color = Color( 1, 0, 0, 1 )
border_color = Color( 0, 0.0862745, 1, 1 )
corner_detail = 20
shadow_offset = Vector2( 2, 2 )

[sub_resource type="StyleBoxEmpty" id=2]

[sub_resource type="DynamicFont" id=1]
outline_color = Color( 0, 0, 0, 1 )
extra_spacing_bottom = -6
font_data = ExtResource( 1 )

[node name="overhead" type="Control"]
anchor_right = 1.0
anchor_bottom = 1.0
margin_left = -32.0
margin_top = -112.0
margin_right = -64.0
margin_bottom = -72.0
script = ExtResource( 2 )
__meta__ = {
"_edit_use_anchors_": false
}

[node name="ProgressBar" type="ProgressBar" parent="."]
margin_left = 8.0
margin_top = 48.0
margin_right = 64.0
margin_bottom = 62.0
custom_styles/fg = SubResource( 3 )
custom_styles/bg = SubResource( 2 )
max_value = 100.0
step = 1.0
allow_greater = true
percent_visible = false
__meta__ = {
"_edit_use_anchors_": false
}

[node name="Label" parent="." groups=[
"hud_2_label",
] instance=ExtResource( 3 )]
modulate = Color( 1, 1, 1, 0.392157 )
anchor_right = 0.0
anchor_bottom = 0.0
margin_left = 8.0
margin_top = 48.0
margin_right = 384.0
margin_bottom = 152.0
custom_fonts/font = SubResource( 1 )
custom_colors/font_color = Color( 1, 0.94902, 0.94902, 1 )
text = "Health: 100
Shotgun 50"
align = 0
