[gd_resource type="DynamicFont" load_steps=2 format=2]

[ext_resource path="res://res/fonts/AmazDooMLeft2.ttf" type="DynamicFontData" id=1]

[resource]
size = 96
outline_size = 2
outline_color = Color( 0, 0, 0, 1 )
extra_spacing_bottom = -60
font_data = ExtResource( 1 )
