[gd_scene load_steps=5 format=2]

[ext_resource path="res://res/sprites/doors/door2_4.png" type="Texture" id=1]
[ext_resource path="res://scripts/Door_Style_2.gd" type="Script" id=2]

[sub_resource type="RectangleShape2D" id=1]
extents = Vector2( 64, 64 )

[sub_resource type="SegmentShape2D" id=2]
a = Vector2( -112, 0 )
b = Vector2( 112, 0 )

[node name="Door_Style_2" type="KinematicBody2D" groups=[
"object_creators",
]]
collision_mask = 22
script = ExtResource( 2 )

[node name="Sprite" type="Sprite" parent="."]
texture = ExtResource( 1 )

[node name="CollisionShape2D" type="CollisionShape2D" parent="."]
shape = SubResource( 1 )

[node name="Area2D" type="Area2D" parent="."]
collision_layer = 0
collision_mask = 6

[node name="CollisionShape2D" type="CollisionShape2D" parent="Area2D"]
position = Vector2( 0, 64 )
scale = Vector2( 0.5, 1 )
shape = SubResource( 2 )
[connection signal="body_entered" from="Area2D" to="." method="_on_Area2D_body_entered"]
