[gd_scene load_steps=2 format=2]

[ext_resource path="res://res/light_1.png" type="Texture" id=1]

[node name="Light" type="Light2D"]
texture = ExtResource( 1 )
shadow_gradient_length = 25.0
shadow_filter = 5
shadow_filter_smooth = 18.6
