[gd_scene load_steps=5 format=2]

[ext_resource path="res://scripts/Health_Powerup.gd" type="Script" id=1]
[ext_resource path="res://res/sprites/pickups/medpack.png" type="Texture" id=2]

[sub_resource type="RectangleShape2D" id=1]
extents = Vector2( 9.44257, 8.05618 )

[sub_resource type="RectangleShape2D" id=2]
extents = Vector2( 15.0549, 11.143 )

[node name="Medpack" type="KinematicBody2D"]
collision_layer = 2147483656
script = ExtResource( 1 )
type = "Med Pack"

[node name="Sprite" type="Sprite" parent="."]
texture = ExtResource( 2 )

[node name="CollisionShape2D" type="CollisionShape2D" parent="."]
position = Vector2( 0, 2.80615 )
shape = SubResource( 1 )

[node name="Area2D" type="Area2D" parent="."]
position = Vector2( 0, -0.561226 )
collision_layer = 0
collision_mask = 2

[node name="CollisionShape2D" type="CollisionShape2D" parent="Area2D"]
shape = SubResource( 2 )

[node name="onscreen" type="VisibilityNotifier2D" parent="."]
[connection signal="body_entered" from="Area2D" to="." method="pickup"]
[connection signal="screen_entered" from="onscreen" to="." method="_on_onscreen_screen_entered"]
[connection signal="screen_exited" from="onscreen" to="." method="_on_onscreen_screen_exited"]
