[gd_scene load_steps=5 format=2]

[ext_resource path="res://res/sprites/pickups/radiation_suit.png" type="Texture" id=1]
[ext_resource path="res://scripts/Radiation_Suit.gd" type="Script" id=2]

[sub_resource type="RectangleShape2D" id=1]
extents = Vector2( 10, 1.62413 )

[sub_resource type="RectangleShape2D" id=2]
extents = Vector2( 10, 26.0941 )

[node name="Radiation_Suit" type="KinematicBody2D"]
collision_layer = 0
script = ExtResource( 2 )

[node name="CollisionShape2D" type="CollisionShape2D" parent="."]
position = Vector2( -0.31498, 24.2535 )
shape = SubResource( 1 )

[node name="Area2D" type="Area2D" parent="."]
collision_layer = 0
collision_mask = 2

[node name="CollisionShape2D" type="CollisionShape2D" parent="Area2D"]
shape = SubResource( 2 )

[node name="Sprite" type="Sprite" parent="."]
texture = ExtResource( 1 )
[connection signal="body_entered" from="Area2D" to="." method="_on_Area2D_body_entered"]
