[gd_scene load_steps=5 format=2]

[ext_resource path="res://res/sprites/weapons/rocket.png" type="Texture" id=1]
[ext_resource path="res://scripts/weapon_pickup.gd" type="Script" id=2]

[sub_resource type="RectangleShape2D" id=1]
extents = Vector2( 10, 16 )

[sub_resource type="RectangleShape2D" id=2]
extents = Vector2( 16, 16 )

[node name="rocket_pickup" type="KinematicBody2D"]
collision_layer = 2147483656
collision_mask = 2147483649
script = ExtResource( 2 )
object = "rocket"
amount = 1
ammo_type = "rockets"

[node name="Sprite" type="Sprite" parent="."]
texture = ExtResource( 1 )

[node name="CollisionShape2D" type="CollisionShape2D" parent="."]
shape = SubResource( 1 )

[node name="Area2D" type="Area2D" parent="."]
collision_layer = 0
collision_mask = 2

[node name="CollisionShape2D2" type="CollisionShape2D" parent="Area2D"]
shape = SubResource( 2 )
[connection signal="body_entered" from="Area2D" to="." method="pickup"]
