[gd_scene load_steps=4 format=2]

[ext_resource path="res://res/tiles/belt.png" type="Texture" id=1]

[sub_resource type="Shader" id=1]
code = "shader_type canvas_item;

uniform vec2 Direction = vec2(1.0,0.0);
uniform float Speed = 0.08;

void fragment(){
	COLOR = texture(TEXTURE, UV +(Direction * TIME * Speed));
}"

[sub_resource type="ShaderMaterial" id=2]
shader = SubResource( 1 )
shader_param/Direction = Vector2( 1, 0 )
shader_param/Speed = 0.08

[node name="Scrolling_object" type="Sprite"]
material = SubResource( 2 )
texture = ExtResource( 1 )
